{
  "project_info": {
    "project_number": "3406814598",
    "firebase_url": "https://mypetpruebas-6e090.firebaseio.com",
    "project_id": "mypetpruebas-6e090",
    "storage_bucket": "mypetpruebas-6e090.appspot.com"
  },
  "client": [
    {
      "client_info": {
        "mobilesdk_app_id": "1:3406814598:android:18f4b02ef9559b61",
        "android_client_info": {
          "package_name": "woopets.com.woopets.staging"
        }
      },
      "oauth_client": [
        {
          "client_id": "3406814598-sgecorgomddknk38n84hpn6tupo15umi.apps.googleusercontent.com",
          "client_type": 3
        }
      ],
      "api_key": [
        {
          "current_key": "AIzaSyA6bAyafrnaEwHMKglqHBHi3Q5Lj62H_TI"
        }
      ],
      "services": {
        "analytics_service": {
          "status": 1
        },
        "appinvite_service": {
          "status": 1,
          "other_platform_oauth_client": []
        },
        "ads_service": {
          "status": 2
        }
      }
    },
    {
      "client_info": {
        "mobilesdk_app_id": "1:3406814598:android:3a74bf10eb83ade8",
        "android_client_info": {
          "package_name": "woopets.com.woopets"
        }
      },
      "oauth_client": [
        {
          "client_id": "3406814598-sgecorgomddknk38n84hpn6tupo15umi.apps.googleusercontent.com",
          "client_type": 3
        }
      ],
      "api_key": [
        {
          "current_key": "AIzaSyA6bAyafrnaEwHMKglqHBHi3Q5Lj62H_TI"
        }
      ],
      "services": {
        "analytics_service": {
          "status": 1
        },
        "appinvite_service": {
          "status": 1,
          "other_platform_oauth_client": []
        },
        "ads_service": {
          "status": 2
        }
      }
    }
  ],
  "configuration_version": "1"
}